cpu_tb.vcd
$date
	Sun Oct 11 18:59:24 2020
$end
$version
	Icarus Verilog
$end
$timescale
	1ps
$end
$scope module cpu_tb $end
$var wire 32 ! daddr [31:0] $end
$var wire 32 " drdata [31:0] $end
$var wire 32 # dwdata [31:0] $end
$var wire 4 $ dwe [3:0] $end
$var wire 32 % iaddr [31:0] $end
$var wire 32 & idata [31:0] $end
$var reg 1 ' clk $end
$var reg 32 ( dtmp [31:0] $end
$var integer 32 ) exp_file [31:0] $end
$var reg 32 * exp_reg [31:0] $end
$var integer 32 + fail [31:0] $end
$var integer 32 , i [31:0] $end
$var integer 32 - log_file [31:0] $end
$var reg 1 . reset $end
$var integer 32 / s [31:0] $end
$scope module u1 $end
$var wire 2 0 ALUOp [1:0] $end
$var wire 1 1 ALUSrc $end
$var wire 32 2 ALUresult [31:0] $end
$var wire 32 3 Load_output [31:0] $end
$var wire 4 4 MemWrite [3:0] $end
$var wire 1 5 MemtoReg $end
$var wire 1 6 RegWrite $end
$var wire 1 7 auipc $end
$var wire 1 8 branch $end
$var wire 1 9 clk $end
$var wire 32 : drdata [31:0] $end
$var wire 32 ; idata [31:0] $end
$var wire 1 < imm $end
$var wire 1 = lui $end
$var wire 32 > offset [31:0] $end
$var wire 32 ? read_data1 [31:0] $end
$var wire 32 @ read_data2 [31:0] $end
$var wire 1 A reset $end
$var wire 1 B store $end
$var wire 1 C zero $end
$var reg 32 D daddr [31:0] $end
$var reg 32 E data2 [31:0] $end
$var reg 32 F dwdata [31:0] $end
$var reg 4 G dwe [3:0] $end
$var reg 32 H iaddr [31:0] $end
$var reg 32 I write_data [31:0] $end
$scope module r1 $end
$var wire 1 9 clk $end
$var wire 32 J r0 [31:0] $end
$var wire 32 K r1 [31:0] $end
$var wire 32 L r2 [31:0] $end
$var wire 32 M r3 [31:0] $end
$var wire 32 N r31 [31:0] $end
$var wire 32 O r4 [31:0] $end
$var wire 32 P r5 [31:0] $end
$var wire 32 Q r6 [31:0] $end
$var wire 32 R r7 [31:0] $end
$var wire 5 S rd [4:0] $end
$var wire 1 A reset $end
$var wire 5 T rs1 [4:0] $end
$var wire 5 U rs2 [4:0] $end
$var wire 32 V rv1 [31:0] $end
$var wire 32 W rv2 [31:0] $end
$var wire 32 X wdata [31:0] $end
$var wire 1 6 we $end
$var integer 32 Y i [31:0] $end
$upscope $end
$scope module c1 $end
$var wire 3 Z ins [2:0] $end
$var wire 7 [ opcode [6:0] $end
$var wire 2 \ waddr [1:0] $end
$var reg 2 ] ALUOp [1:0] $end
$var reg 1 ^ ALUSrc $end
$var reg 4 _ MemWrite [3:0] $end
$var reg 1 ` MemtoReg $end
$var reg 1 a RegWrite $end
$var reg 1 b auipc $end
$var reg 1 c branch $end
$var reg 1 d imm $end
$var reg 1 e lui $end
$var reg 1 f store $end
$upscope $end
$scope module a1 $end
$var wire 2 g ALUOp [1:0] $end
$var wire 32 h data1 [31:0] $end
$var wire 32 i data2 [31:0] $end
$var wire 1 < imm $end
$var wire 32 j instr [31:0] $end
$var reg 32 k ALUresult [31:0] $end
$var reg 1 l zero $end
$upscope $end
$scope module l1 $end
$var wire 32 m ALUresult [31:0] $end
$var wire 3 n inst [2:0] $end
$var wire 32 o read_data [31:0] $end
$var reg 32 p Load_output [31:0] $end
$upscope $end
$upscope $end
$scope module u2 $end
$var wire 32 q iaddr [31:0] $end
$var wire 32 r idata [31:0] $end
$upscope $end
$scope module u3 $end
$var wire 30 s a [29:0] $end
$var wire 1 9 clk $end
$var wire 32 t daddr [31:0] $end
$var wire 32 u drdata [31:0] $end
$var wire 32 v dwdata [31:0] $end
$var wire 4 w dwe [3:0] $end
$upscope $end
$upscope $end
$enddefinitions $end
#0
$dumpvars
b0 w
b0 v
b0 u
b10000000 t
b100000 s
b1000000000000000000100010011 r
b0 q
b0 p
b0 o
b0 n
b10000000 m
xl
b10000000 k
b1000000000000000000100010011 j
b10000000 i
b0 h
b10 g
0f
0e
1d
0c
0b
1a
0`
b0 _
1^
b10 ]
b0 \
b10011 [
b0 Z
b100000 Y
b10000000 X
b0 W
b0 V
b0 U
b0 T
b10 S
b0 R
b0 Q
b0 P
b0 O
b0 N
b0 M
b0 L
b0 K
b0 J
b10000000 I
b0 H
b0 G
b0 F
b10000000 E
b10000000 D
xC
0B
1A
b0 @
b0 ?
b10000010 >
0=
1<
b1000000000000000000100010011 ;
b0 :
19
08
07
16
05
b0 4
b0 3
b10000000 2
11
b10 0
bx /
1.
bx -
bx ,
bx +
bx *
bx )
bx (
1'
b1000000000000000000100010011 &
b0 %
b0 $
b0 #
b0 "
b10000000 !
$end
#5000
0'
09
#10000
b110011000000000000000000000000 "
b110011000000000000000000000000 :
b110011000000000000000000000000 o
b110011000000000000000000000000 u
b0 s
b0 D
b0 !
b0 t
b10000000 L
1'
19
#15000
0'
09
#20000
1'
19
#25000
0'
09
#30000
1'
19
#35000
0'
09
#40000
1'
19
#45000
0'
09
#50000
1'
19
#55000
0'
09
#60000
1'
19
#65000
0'
09
#70000
1'
19
#75000
0'
09
#80000
1'
19
#85000
0'
09
#90000
1'
19
#95000
0'
09
#100000
b0 p
b0 3
b1100000 I
b1100000 X
b11111111111111111111011111100010 >
b10 T
b10000000 ?
b10000000 V
b10000000 h
b1100000 k
b1100000 2
b1100000 m
b11111111111111111111111111100000 E
b11111111111111111111111111100000 i
b0 "
b0 :
b0 o
b0 u
b11000 s
b11111110000000010000000100010011 &
b11111110000000010000000100010011 ;
b11111110000000010000000100010011 j
b11111110000000010000000100010011 r
b1100000 D
b1100000 !
b1100000 t
b100 H
b100 %
b100 q
b0 ,
1'
19
b10000000000000000000000000000100 )
b10000000000000000000000000000011 -
0.
0A
#105000
0'
09
#110000
b0 p
b0 3
b1111 G
b1111 $
b1111 w
b0 "
b0 :
b0 o
b0 u
0d
0<
1f
1B
0a
06
b0 ]
b0 0
b0 g
b1111 _
b1111 4
b11100 >
b10 n
b100011 [
b10 Z
b11100 S
b1 U
b11100 E
b11100 i
b11111 s
b100010010111000100011 &
b100010010111000100011 ;
b100010010111000100011 j
b100010010111000100011 r
b1111100 D
b1111100 !
b1111100 t
b1111100 I
b1111100 X
b1111100 k
b1111100 2
b1111100 m
b1000 H
b1000 %
b1000 q
b1100000 ?
b1100000 V
b1100000 h
b1100000 L
b1 ,
1'
19
#115000
0'
09
#120000
b11110 s
b1111000 D
b1111000 !
b1111000 t
b1111000 I
b1111000 X
b11000 >
b11000 S
b1000 U
b1111000 k
b1111000 2
b1111000 m
b11000 E
b11000 i
b100000010010110000100011 &
b100000010010110000100011 ;
b100000010010110000100011 j
b100000010010110000100011 r
b1100 H
b1100 %
b1100 q
b10 ,
1'
19
#125000
0'
09
#130000
b0 G
b0 $
b0 w
b100000 s
1d
1<
1a
16
b10 ]
b10 0
b10 g
b0 _
b0 4
0f
0B
b10000000 D
b10000000 !
b10000000 t
b10000000 I
b10000000 X
b101000 >
b0 n
b10011 [
b0 Z
b1000 S
b0 U
b10000000 k
b10000000 2
b10000000 m
b100000 E
b100000 i
b10000000010000010000010011 &
b10000000010000010000010011 ;
b10000000010000010000010011 j
b10000000010000010000010011 r
b10000 H
b10000 %
b10000 q
b11 ,
1'
19
#135000
0'
09
#140000
b110011 p
b110011 3
b110011000000000000000000000000 "
b110011000000000000000000000000 :
b110011000000000000000000000000 o
b110011000000000000000000000000 u
b0 s
b11 \
b11 D
b11 !
b11 t
b11 I
b11 X
b100000001110 >
b1111 S
b11 U
b0 T
b0 ?
b0 V
b0 h
b11 k
b11 2
b11 m
b11 E
b11 i
b1100000000011110010011 &
b1100000000011110010011 ;
b1100000000011110010011 j
b1100000000011110010011 r
b10100 H
b10100 %
b10100 q
b100 ,
1'
19
#145000
0'
09
#150000
b0 "
b0 :
b0 o
b0 u
b11011 s
b1111 G
b1111 $
b1111 w
0d
0<
1f
1B
0a
06
b0 ]
b0 0
b0 g
b1111 _
b1111 4
b0 \
b0 p
b0 3
b11 F
b11 #
b11 v
b1101100 D
b1101100 !
b1101100 t
b1101100 I
b1101100 X
b11111111111111111111011111101100 >
b10 n
b100011 [
b10 Z
b1100 S
b1111 U
b11 @
b11 W
b1000 T
b10000000 ?
b10000000 V
b10000000 h
b1101100 k
b1101100 2
b1101100 m
b11111111111111111111111111101100 E
b11111111111111111111111111101100 i
b11111110111101000010011000100011 &
b11111110111101000010011000100011 ;
b11111110111101000010011000100011 j
b11111110111101000010011000100011 r
b11000 H
b11000 %
b11000 q
b101 ,
1'
19
#155000
0'
09
#160000
b0 s
1a
16
b0 F
b0 #
b0 v
b0 D
b0 !
b0 t
b0 I
b0 X
b0 >
b0 n
b1101111 [
b0 Z
b0 S
b10000 U
b0 @
b0 W
b0 T
b0 ?
b0 V
b0 h
b0 k
b0 2
b0 m
b0 E
b0 i
b1000000000000000001101111 &
b1000000000000000001101111 ;
b1000000000000000001101111 j
b1000000000000000001101111 r
b11100 H
b11100 %
b11100 q
b0 p
b0 3
b110011000000000000000000000000 "
b110011000000000000000000000000 :
b110011000000000000000000000000 o
b110011000000000000000000000000 u
b110 ,
1'
19
#165000
0'
09
#170000
b11 p
b11 3
b0 G
b0 $
b0 w
b11011 s
1`
15
0f
0B
b0 _
b0 4
b0 \
b1101100 D
b1101100 !
b1101100 t
b11 I
b11 X
b11111111111111111111011111101110 >
b10 n
b11 [
b10 Z
b1110 S
b1100 U
b1000 T
b10000000 ?
b10000000 V
b10000000 h
b1101100 k
b1101100 2
b1101100 m
b11111111111111111111111111101100 E
b11111111111111111111111111101100 i
b11111110110001000010011100000011 &
b11111110110001000010011100000011 ;
b11111110110001000010011100000011 j
b11111110110001000010011100000011 r
b101100 H
b101100 %
b101100 q
b111 ,
b11 "
b11 :
b11 o
b11 u
1'
19
#175000
0'
09
#180000
b1 I
b1 X
b0 "
b0 :
b0 o
b0 u
b0 s
1d
1<
0`
05
b10 ]
b10 0
b10 g
b1 \
b0 p
b0 3
b1 D
b1 !
b1 t
b100000001110 >
b0 n
b10011 [
b0 Z
b1111 S
b1 U
b0 T
b0 ?
b0 V
b0 h
b1 k
b1 2
b1 m
b1 E
b1 i
b100000000011110010011 &
b100000000011110010011 ;
b100000000011110010011 j
b100000000011110010011 r
b110000 H
b110000 %
b110000 q
b1000 ,
1'
19
#185000
0'
09
#190000
1l
1C
b0xxxxxxxx p
b0xxxxxxxx 3
bx "
bx :
bx o
bx u
b111111111111111111111111111011 s
0d
0<
0^
01
0a
06
b1 ]
b1 0
b1 g
1f
1B
1c
18
b11 \
b11 F
b11 #
b11 v
b11111111111111111111111111101111 D
b11111111111111111111111111101111 !
b11111111111111111111111111101111 t
b11111111111111111111111111101111 I
b11111111111111111111111111101111 X
b11111111111111111111111111101100 >
b100 n
b1100011 [
b100 Z
b1101 S
b1110 U
b11 @
b11 W
b1111 T
b1 ?
b1 V
b1 h
b11111111111111111111111111101111 k
b11111111111111111111111111101111 2
b11111111111111111111111111101111 m
b11 E
b11 i
b11111110111001111100011011100011 &
b11111110111001111100011011100011 ;
b11111110111001111100011011100011 j
b11111110111001111100011011100011 r
b110100 H
b110100 %
b110100 q
b1001 ,
1'
19
#195000
0'
09
#200000
b11 "
b11 :
b11 o
b11 u
b11011 s
b0 \
b1101100 D
b1101100 !
b1101100 t
b11 I
b11 X
b1101100 k
b1101100 2
b1101100 m
b11 p
b11 3
1^
11
1`
15
1a
16
0f
0B
b0 ]
b0 0
b0 g
0c
08
b0 F
b0 #
b0 v
b11111111111111111111111111101100 E
b11111111111111111111111111101100 i
b11111111111111111111011111101010 >
b10 n
b11 [
b10 Z
b1010 S
b1100 U
b0 @
b0 W
b1000 T
b10000000 ?
b10000000 V
b10000000 h
b11111110110001000010010100000011 &
b11111110110001000010010100000011 ;
b11111110110001000010010100000011 j
b11111110110001000010010100000011 r
b100000 H
b100000 %
b100000 q
b1010 ,
1'
19
#205000
0'
09
#210000
b0 p
b0 3
b0 "
b0 :
b0 o
b0 u
b10000 s
b1000000 D
b1000000 !
b1000000 t
b100001000000 >
b0 n
b1101111 [
b0 Z
b1 S
b0 U
b0 T
b0 ?
b0 V
b0 h
b1000000 k
b1000000 2
b1000000 m
b101000 I
b101000 X
b1000000 E
b1000000 i
b100000000000000000011101111 &
b100000000000000000011101111 ;
b100000000000000000011101111 j
b100000000000000000011101111 r
b100100 H
b100100 %
b100100 q
b1011 ,
1'
19
#215000
0'
09
#220000
b0 p
b0 3
b0 "
b0 :
b0 o
b0 u
b10000 s
1d
1<
0`
05
b10 ]
b10 0
b10 g
b1000000 D
b1000000 !
b1000000 t
b11111111111111111111011111100010 >
b10011 [
b10 S
b10 T
b1100000 ?
b1100000 V
b1100000 h
b1000000 k
b1000000 2
b1000000 m
b11111111111111111111111111100000 E
b11111111111111111111111111100000 i
b11111110000000010000000100010011 &
b11111110000000010000000100010011 ;
b11111110000000010000000100010011 j
b11111110000000010000000100010011 r
b1000000 I
b1000000 X
b101000 K
b1100100 H
b1100100 %
b1100100 q
b1100 ,
1'
19
#225000
0'
09
#230000
b1111 G
b1111 $
b1111 w
0d
0<
1f
1B
0a
06
b0 ]
b0 0
b0 g
b1111 _
b1111 4
b10000000 F
b10000000 #
b10000000 v
b11100 >
b10 n
b100011 [
b10 Z
b11100 S
b1000 U
b10000000 @
b10000000 W
b11100 E
b11100 i
b10111 s
b100000010010111000100011 &
b100000010010111000100011 ;
b100000010010111000100011 j
b100000010010111000100011 r
b1011100 D
b1011100 !
b1011100 t
b1011100 I
b1011100 X
b1011100 k
b1011100 2
b1011100 m
b1101000 H
b1101000 %
b1101000 q
b1000000 ?
b1000000 V
b1000000 h
b1000000 L
b1101 ,
1'
19
#235000
0'
09
#240000
b0 G
b0 $
b0 w
b11000 s
1d
1<
1a
16
b10 ]
b10 0
b10 g
b0 _
b0 4
0f
0B
b0 F
b0 #
b0 v
b1100000 D
b1100000 !
b1100000 t
b1100000 I
b1100000 X
b101000 >
b0 n
b10011 [
b0 Z
b1000 S
b0 U
b0 @
b0 W
b1100000 k
b1100000 2
b1100000 m
b100000 E
b100000 i
b10000000010000010000010011 &
b10000000010000010000010011 ;
b10000000010000010000010011 j
b10000000010000010000010011 r
b1101100 H
b1101100 %
b1101100 q
b0 p
b0 3
b0 "
b0 :
b0 o
b0 u
b1110 ,
1'
19
#245000
0'
09
#250000
b1111 G
b1111 $
b1111 w
b10011 s
0d
0<
1f
1B
0a
06
b0 ]
b0 0
b0 g
b1111 _
b1111 4
b11 F
b11 #
b11 v
b1001100 D
b1001100 !
b1001100 t
b1001100 I
b1001100 X
b11111111111111111111011111101100 >
b10 n
b100011 [
b10 Z
b1100 S
b1010 U
b11 @
b11 W
b1000 T
b1100000 ?
b1100000 V
b1100000 h
b1001100 k
b1001100 2
b1001100 m
b11111111111111111111111111101100 E
b11111111111111111111111111101100 i
b11111110101001000010011000100011 &
b11111110101001000010011000100011 ;
b11111110101001000010011000100011 j
b11111110101001000010011000100011 r
b1110000 H
b1110000 %
b1110000 q
b1111 ,
1'
19
#255000
0'
09
#260000
b0 G
b0 $
b0 w
1`
15
1a
16
0f
0B
b0 _
b0 4
b0 \
b0 F
b0 #
b0 v
b1001100 D
b1001100 !
b1001100 t
b11 I
b11 X
b11111111111111111111111111101110 >
b11 [
b1111 S
b1100 U
b0 @
b0 W
b1001100 k
b1001100 2
b1001100 m
b11111111111111111111111111101100 E
b11111111111111111111111111101100 i
b11111110110001000010011110000011 &
b11111110110001000010011110000011 ;
b11111110110001000010011110000011 j
b11111110110001000010011110000011 r
b1110100 H
b1110100 %
b1110100 q
b11 p
b11 3
b11 "
b11 :
b11 o
b11 u
b10000 ,
1'
19
#265000
0'
09
#270000
b10 I
b10 X
b0 "
b0 :
b0 o
b0 u
b0 s
1d
1<
0`
05
b10 ]
b10 0
b10 g
b10 \
b0 p
b0 3
b10 D
b10 !
b10 t
b0 n
b10011 [
b0 Z
b11111 U
b1111 T
b11 ?
b11 V
b11 h
b10 k
b10 2
b10 m
b11111111111111111111111111111111 E
b11111111111111111111111111111111 i
b11111111111101111000011110010011 &
b11111111111101111000011110010011 ;
b11111111111101111000011110010011 j
b11111111111101111000011110010011 r
b1111000 H
b1111000 %
b1111000 q
b10001 ,
1'
19
#275000
0'
09
#280000
b10 \
b1010 >
b1010 S
b0 U
b10 D
b10 !
b10 t
b10 I
b10 X
b0 E
b0 i
b10 k
b10 2
b10 m
b1111000010100010011 &
b1111000010100010011 ;
b1111000010100010011 j
b1111000010100010011 r
b10 ?
b10 V
b10 h
b1111100 H
b1111100 %
b1111100 q
b10010 ,
1'
19
#285000
0'
09
#290000
b10000000 p
b10000000 3
b10000000 "
b10000000 :
b10000000 o
b10000000 u
b10111 s
0d
0<
1`
15
b0 ]
b0 0
b0 g
b0 \
b1011100 D
b1011100 !
b1011100 t
b10000000 I
b10000000 X
b1000 >
b10 n
b11 [
b10 Z
b1000 S
b11100 U
b10 T
b1000000 ?
b1000000 V
b1000000 h
b1011100 k
b1011100 2
b1011100 m
b11100 E
b11100 i
b1110000010010010000000011 &
b1110000010010010000000011 ;
b1110000010010010000000011 j
b1110000010010010000000011 r
b10000000 H
b10000000 %
b10000000 q
b10011 ,
1'
19
#295000
0'
09
#300000
b1100000 I
b1100000 X
b0 "
b0 :
b0 o
b0 u
b11000 s
1d
1<
0`
05
b10 ]
b10 0
b10 g
b0 p
b0 3
b1100000 D
b1100000 !
b1100000 t
b100010 >
b0 n
b10011 [
b0 Z
b10 S
b0 U
b1100000 k
b1100000 2
b1100000 m
b100000 E
b100000 i
b10000000010000000100010011 &
b10000000010000000100010011 ;
b10000000010000000100010011 j
b10000000010000000100010011 r
b10000100 H
b10000100 %
b10000100 q
b10100 ,
1'
19
#305000
0'
09
#310000
1`
15
b0 ]
b0 0
b0 g
b0 >
b1100111 [
b0 S
b1 T
b0 E
b0 i
b1010 s
b1000000001100111 &
b1000000001100111 ;
b1000000001100111 j
b1000000001100111 r
b101000 D
b101000 !
b101000 t
b10001100 I
b10001100 X
b101000 k
b101000 2
b101000 m
b10001000 H
b10001000 %
b10001000 q
b101000 ?
b101000 V
b101000 h
b1100000 L
b10101 ,
1'
19
#315000
0'
09
#320000
b11 p
b11 3
b11 "
b11 :
b11 o
b11 u
b1111 G
b1111 $
b1111 w
b11011 s
0d
0<
1f
1B
0a
06
b1111 _
b1111 4
b0 \
b10 F
b10 #
b10 v
b1101100 D
b1101100 !
b1101100 t
b11111111111111111111011111101100 >
b10 n
b100011 [
b10 Z
b1100 S
b1010 U
b10 @
b10 W
b1000 T
b10000000 ?
b10000000 V
b10000000 h
b1101100 k
b1101100 2
b1101100 m
b11111111111111111111111111101100 E
b11111111111111111111111111101100 i
b11111110101001000010011000100011 &
b11111110101001000010011000100011 ;
b11111110101001000010011000100011 j
b11111110101001000010011000100011 r
b11 I
b11 X
b101000 H
b101000 %
b101000 q
b10110 ,
1'
19
#325000
0'
09
#330000
b0 G
b0 $
b0 w
1a
16
0f
0B
b0 _
b0 4
b0 \
b0 F
b0 #
b0 v
b1101100 D
b1101100 !
b1101100 t
b11111111111111111111011111101110 >
b11 [
b1110 S
b1100 U
b0 @
b0 W
b1101100 k
b1101100 2
b1101100 m
b11111111111111111111111111101100 E
b11111111111111111111111111101100 i
b11111110110001000010011100000011 &
b11111110110001000010011100000011 ;
b11111110110001000010011100000011 j
b11111110110001000010011100000011 r
b101100 H
b101100 %
b101100 q
b10 I
b10 X
b10 p
b10 3
b10111 ,
b10 "
b10 :
b10 o
b10 u
1'
19
#335000
0'
09
#340000
b1 I
b1 X
b0 "
b0 :
b0 o
b0 u
b0 s
1d
1<
0`
05
b10 ]
b10 0
b10 g
b1 \
b0 p
b0 3
b101000 F
b101000 #
b101000 v
b1 D
b1 !
b1 t
b100000001110 >
b0 n
b10011 [
b0 Z
b1111 S
b1 U
b101000 @
b101000 W
b0 T
b0 ?
b0 V
b0 h
b1 k
b1 2
b1 m
b1 E
b1 i
b100000000011110010011 &
b100000000011110010011 ;
b100000000011110010011 j
b100000000011110010011 r
b110000 H
b110000 %
b110000 q
b11000 ,
1'
19
#345000
0'
09
#350000
b0xxxxxxxx p
b0xxxxxxxx 3
bx "
bx :
bx o
bx u
b111111111111111111111111111011 s
0d
0<
0^
01
0a
06
b1 ]
b1 0
b1 g
1f
1B
1c
18
b11 \
b10 F
b10 #
b10 v
b11111111111111111111111111101111 D
b11111111111111111111111111101111 !
b11111111111111111111111111101111 t
b11111111111111111111111111101111 I
b11111111111111111111111111101111 X
b11111111111111111111111111101100 >
b100 n
b1100011 [
b100 Z
b1101 S
b1110 U
b10 @
b10 W
b1111 T
b1 ?
b1 V
b1 h
b11111111111111111111111111101111 k
b11111111111111111111111111101111 2
b11111111111111111111111111101111 m
b10 E
b10 i
b11111110111001111100011011100011 &
b11111110111001111100011011100011 ;
b11111110111001111100011011100011 j
b11111110111001111100011011100011 r
b110100 H
b110100 %
b110100 q
b11001 ,
1'
19
#355000
0'
09
#360000
b10 "
b10 :
b10 o
b10 u
b11011 s
b0 \
b1101100 D
b1101100 !
b1101100 t
b10 I
b10 X
b1101100 k
b1101100 2
b1101100 m
b10 p
b10 3
1^
11
1`
15
1a
16
0f
0B
b0 ]
b0 0
b0 g
0c
08
b0 F
b0 #
b0 v
b11111111111111111111111111101100 E
b11111111111111111111111111101100 i
b11111111111111111111011111101010 >
b10 n
b11 [
b10 Z
b1010 S
b1100 U
b0 @
b0 W
b1000 T
b10000000 ?
b10000000 V
b10000000 h
b11111110110001000010010100000011 &
b11111110110001000010010100000011 ;
b11111110110001000010010100000011 j
b11111110110001000010010100000011 r
b100000 H
b100000 %
b100000 q
b11010 ,
1'
19
#365000
0'
09
#370000
b0 p
b0 3
b0 "
b0 :
b0 o
b0 u
b10000 s
b1000000 D
b1000000 !
b1000000 t
b100001000000 >
b0 n
b1101111 [
b0 Z
b1 S
b0 U
b0 T
b0 ?
b0 V
b0 h
b1000000 k
b1000000 2
b1000000 m
b101000 I
b101000 X
b1000000 E
b1000000 i
b100000000000000000011101111 &
b100000000000000000011101111 ;
b100000000000000000011101111 j
b100000000000000000011101111 r
b100100 H
b100100 %
b100100 q
b11011 ,
1'
19
#375000
0'
09
#380000
b0 p
b0 3
b0 "
b0 :
b0 o
b0 u
b10000 s
1d
1<
0`
05
b10 ]
b10 0
b10 g
b1000000 D
b1000000 !
b1000000 t
b11111111111111111111011111100010 >
b10011 [
b10 S
b10 T
b1100000 ?
b1100000 V
b1100000 h
b1000000 k
b1000000 2
b1000000 m
b11111111111111111111111111100000 E
b11111111111111111111111111100000 i
b11111110000000010000000100010011 &
b11111110000000010000000100010011 ;
b11111110000000010000000100010011 j
b11111110000000010000000100010011 r
b1000000 I
b1000000 X
b1100100 H
b1100100 %
b1100100 q
b11100 ,
1'
19
#385000
0'
09
#390000
b10000000 p
b10000000 3
b10000000 "
b10000000 :
b10000000 o
b10000000 u
b1111 G
b1111 $
b1111 w
0d
0<
1f
1B
0a
06
b0 ]
b0 0
b0 g
b1111 _
b1111 4
b10000000 F
b10000000 #
b10000000 v
b11100 >
b10 n
b100011 [
b10 Z
b11100 S
b1000 U
b10000000 @
b10000000 W
b11100 E
b11100 i
b10111 s
b100000010010111000100011 &
b100000010010111000100011 ;
b100000010010111000100011 j
b100000010010111000100011 r
b1011100 D
b1011100 !
b1011100 t
b1011100 I
b1011100 X
b1011100 k
b1011100 2
b1011100 m
b1101000 H
b1101000 %
b1101000 q
b1000000 ?
b1000000 V
b1000000 h
b1000000 L
b11101 ,
1'
19
#395000
0'
09
#400000
b0 G
b0 $
b0 w
b0 "
b0 :
b0 o
b0 u
b11000 s
1d
1<
1a
16
b10 ]
b10 0
b10 g
b0 _
b0 4
0f
0B
b0 p
b0 3
b0 F
b0 #
b0 v
b1100000 D
b1100000 !
b1100000 t
b1100000 I
b1100000 X
b101000 >
b0 n
b10011 [
b0 Z
b1000 S
b0 U
b0 @
b0 W
b1100000 k
b1100000 2
b1100000 m
b100000 E
b100000 i
b10000000010000010000010011 &
b10000000010000010000010011 ;
b10000000010000010000010011 j
b10000000010000010000010011 r
b1101100 H
b1101100 %
b1101100 q
b11110 ,
1'
19
#405000
0'
09
#410000
b11 p
b11 3
b11 "
b11 :
b11 o
b11 u
b1111 G
b1111 $
b1111 w
b10011 s
0d
0<
1f
1B
0a
06
b0 ]
b0 0
b0 g
b1111 _
b1111 4
b10 F
b10 #
b10 v
b1001100 D
b1001100 !
b1001100 t
b1001100 I
b1001100 X
b11111111111111111111011111101100 >
b10 n
b100011 [
b10 Z
b1100 S
b1010 U
b10 @
b10 W
b1000 T
b1100000 ?
b1100000 V
b1100000 h
b1001100 k
b1001100 2
b1001100 m
b11111111111111111111111111101100 E
b11111111111111111111111111101100 i
b11111110101001000010011000100011 &
b11111110101001000010011000100011 ;
b11111110101001000010011000100011 j
b11111110101001000010011000100011 r
b1110000 H
b1110000 %
b1110000 q
b11111 ,
1'
19
#415000
0'
09
#420000
b0 G
b0 $
b0 w
1`
15
1a
16
0f
0B
b0 _
b0 4
b0 \
b0 F
b0 #
b0 v
b1001100 D
b1001100 !
b1001100 t
b10 I
b10 X
b11111111111111111111111111101110 >
b11 [
b1111 S
b1100 U
b0 @
b0 W
b1001100 k
b1001100 2
b1001100 m
b11111111111111111111111111101100 E
b11111111111111111111111111101100 i
b11111110110001000010011110000011 &
b11111110110001000010011110000011 ;
b11111110110001000010011110000011 j
b11111110110001000010011110000011 r
b1110100 H
b1110100 %
b1110100 q
b10 p
b10 3
b10 "
b10 :
b10 o
b10 u
b100000 ,
1'
19
#425000
0'
09
#430000
b1 I
b1 X
b0 "
b0 :
b0 o
b0 u
b0 s
1d
1<
0`
05
b10 ]
b10 0
b10 g
b1 \
b0 p
b0 3
b1 D
b1 !
b1 t
b0 n
b10011 [
b0 Z
b11111 U
b1111 T
b10 ?
b10 V
b10 h
b1 k
b1 2
b1 m
b11111111111111111111111111111111 E
b11111111111111111111111111111111 i
b11111111111101111000011110010011 &
b11111111111101111000011110010011 ;
b11111111111101111000011110010011 j
b11111111111101111000011110010011 r
b1111000 H
b1111000 %
b1111000 q
b100001 ,
1'
19
#435000
0'
09
#440000
b1 \
b1010 >
b1010 S
b0 U
b1 D
b1 !
b1 t
b1 I
b1 X
b0 E
b0 i
b1 k
b1 2
b1 m
b1111000010100010011 &
b1111000010100010011 ;
b1111000010100010011 j
b1111000010100010011 r
b1 ?
b1 V
b1 h
b1111100 H
b1111100 %
b1111100 q
b100010 ,
1'
19
#445000
0'
09
#450000
b10000000 p
b10000000 3
b10000000 "
b10000000 :
b10000000 o
b10000000 u
b10111 s
b0 \
b1011100 D
b1011100 !
b1011100 t
b10000000 I
b10000000 X
0d
0<
1`
15
b0 ]
b0 0
b0 g
b1011100 k
b1011100 2
b1011100 m
b1000 >
b10 n
b11 [
b10 Z
b1000 S
b11100 U
b10 T
b1000000 ?
b1000000 V
b1000000 h
b11100 E
b11100 i
b1110000010010010000000011 &
b1110000010010010000000011 ;
b1110000010010010000000011 j
b1110000010010010000000011 r
b10000000 H
b10000000 %
b10000000 q
b100011 ,
1'
19
#455000
0'
09
#460000
b1100000 I
b1100000 X
b0 "
b0 :
b0 o
b0 u
b11000 s
1d
1<
0`
05
b10 ]
b10 0
b10 g
b0 p
b0 3
b1100000 D
b1100000 !
b1100000 t
b100010 >
b0 n
b10011 [
b0 Z
b10 S
b0 U
b1100000 k
b1100000 2
b1100000 m
b100000 E
b100000 i
b10000000010000000100010011 &
b10000000010000000100010011 ;
b10000000010000000100010011 j
b10000000010000000100010011 r
b10000100 H
b10000100 %
b10000100 q
b100100 ,
1'
19
#465000
0'
09
#470000
1`
15
b0 ]
b0 0
b0 g
b0 >
b1100111 [
b0 S
b1 T
b0 E
b0 i
b1010 s
b1000000001100111 &
b1000000001100111 ;
b1000000001100111 j
b1000000001100111 r
b101000 D
b101000 !
b101000 t
b10001100 I
b10001100 X
b101000 k
b101000 2
b101000 m
b10001000 H
b10001000 %
b10001000 q
b101000 ?
b101000 V
b101000 h
b1100000 L
b100101 ,
1'
19
#475000
0'
09
#480000
b10 p
b10 3
b10 "
b10 :
b10 o
b10 u
b1111 G
b1111 $
b1111 w
b11011 s
0d
0<
1f
1B
0a
06
b1111 _
b1111 4
b0 \
b1 F
b1 #
b1 v
b1101100 D
b1101100 !
b1101100 t
b11111111111111111111011111101100 >
b10 n
b100011 [
b10 Z
b1100 S
b1010 U
b1 @
b1 W
b1000 T
b10000000 ?
b10000000 V
b10000000 h
b1101100 k
b1101100 2
b1101100 m
b11111111111111111111111111101100 E
b11111111111111111111111111101100 i
b11111110101001000010011000100011 &
b11111110101001000010011000100011 ;
b11111110101001000010011000100011 j
b11111110101001000010011000100011 r
b10 I
b10 X
b101000 H
b101000 %
b101000 q
b100110 ,
1'
19
#485000
0'
09
#490000
b0 G
b0 $
b0 w
1a
16
0f
0B
b0 _
b0 4
b0 \
b0 F
b0 #
b0 v
b1101100 D
b1101100 !
b1101100 t
b11111111111111111111011111101110 >
b11 [
b1110 S
b1100 U
b0 @
b0 W
b1101100 k
b1101100 2
b1101100 m
b11111111111111111111111111101100 E
b11111111111111111111111111101100 i
b11111110110001000010011100000011 &
b11111110110001000010011100000011 ;
b11111110110001000010011100000011 j
b11111110110001000010011100000011 r
b101100 H
b101100 %
b101100 q
b1 I
b1 X
b1 p
b1 3
b100111 ,
b1 "
b1 :
b1 o
b1 u
1'
19
#495000
0'
09
